{
  "Id": "4d9015b2-362a-42db-911e-2f7042ebced0",
  "Text": "<zag size=\"14\" s=1 >Ослеплен (Dazzled)</zag><zag size=\"14\" color=\"87|24|12\" s=1 sepType=\"2\" sep=1 >      </zag>\r\nВаши глаза перенапряжены. Если зрение ваше единственное точное чувство, все существа и объекты <gl id=\"c3140ebb-9335-4ffe-beae-1476f81f334e\" b=\"0\" h=\"0\" sep=\", \" count=\"1\" isFolder=\"0\" open=\"0\" hint=\"0\">Скрыт</gl> для вас."
}