{
  "Id": "98bf1fcd-f97b-4dc6-8d1e-1e8868768ee9",
  "Text": "<a image=\"1\" stretch=\"0\" size=\"10\" anchor=\"1\" wrap=\"1\" href=\".\\Images\\PF_action_1.png\">Ссылка</a> <zag size=\"14\" s=1 >Лететь (Fly)</zag>\r\n<zag size=\"14\" color=\"87|24|12\" u=1 i=1 sepType=\"2\" sep=1 >воздействие</zag><zag size=\"14\" i=1 > </zag>\r\n<zag size=\"14\" s=1 >Требования:</zag> У вас есть Скорость полета\r\nВы используете вашу руку или руки, чтобы воздействовать на объект или местность. Вы можете взять ничейный или убранный объект, открыть дверь, или произвести подобный эффект. Возможно вам придется совершить проверку навыка, чтобы определить успешность Взаимодействия."
}