{
  "Id": "a6e8d906-2c7d-464a-a8ea-55f6baa1ef7a",
  "Text": "<a image=\"1\" stretch=\"0\" size=\"10\" anchor=\"1\" wrap=\"1\" href=\".\\Images\\PF_action_1.png\">Ссылка</a> <zag size=\"14\" s=1 >Ползти (Crawl) </zag>\r\n<zag size=\"14\" u=1 i=1 sepType=\"2\" sep=1 >движение</zag>\r\n<zag size=\"14\" color=\"9|9|9\" s=1 >Требования:</zag> Вы лежите ничком и ваша Скорость как минимум 10 футов\r\n\r\nВы перемещаетесь на 5 футов ползком и остаетесь ничком на земле."
}