{
  "Id": "42babea9-f1f5-44a4-8435-f47329da4589",
  "Text": "Фиолетовый яд (Violet Venom)\r\n<zag size=\"14\" i=1 >необычный</zag> <zag size=\"14\" i=1 >алхимический</zag> <zag size=\"14\" i=1 >расходуемый</zag> <zag size=\"14\" i=1 >контактный</zag> <zag size=\"14\" i=1 >яд</zag><zag size=\"14\" color=\"87|24|12\" s=1 sepType=\"2\" sep=1 >      </zag>\r\n<zag size=\"14\" s=1 >Цена:</zag> 12 зм \r\n<zag size=\"14\" s=1 >Использование:</zag> 2 руки\r\n<zag size=\"14\" s=1 >Активация:</zag> <gl id=\"0c20a91c-8445-4f35-b1fb-acd01eccfed4\" b=\"0\" h=\"0\" sep=\", \" count=\"1\" isFolder=\"0\" open=\"0\" hint=\"0\">Взаимодействовать</gl> 2\r\n\r\nТонкий процесс извлечения фиолетового яда из фиолетового гриба дает его низкоконцентрированную версию. Алхимики все еще ищут по-настоящему чистую и неподдельную версию этого высокотоксичного яда. \r\n\r\n<zag size=\"14\" s=1 >Спасбросок:</zag> 17 КС Стойкость\r\n<zag size=\"14\" s=1 >Максимальная продолжительность:</zag> 6 раундов\r\n<zag size=\"14\" s=1 >Стадия 1:</zag> урон ядом 1d6 и состояние <gl id=\"d6e3d149-c786-4cb0-bc9e-7c553644b234\" b=\"0\" h=\"0\" sep=\", \" count=\"1\" isFolder=\"0\" open=\"0\" hint=\"0\">Ослаблен</gl> 1 (1 раунд)\r\n<zag size=\"14\" s=1 >Стадия 2:</zag> урон ядом 1d6 и состояние <gl id=\"239f96a6-4804-45f7-8cc6-cc165d050074\" b=\"0\" h=\"0\" sep=\", \" count=\"1\" isFolder=\"0\" open=\"0\" hint=\"0\">Истощен</gl> 1 (1 раунд)\r\n<zag size=\"14\" s=1 >Стадия 3:</zag> урон ядом 2d6 и состояние <gl id=\"d6e3d149-c786-4cb0-bc9e-7c553644b234\" b=\"0\" h=\"0\" sep=\", \" count=\"1\" isFolder=\"0\" open=\"0\" hint=\"0\">Ослаблен</gl> 1 (1 раунд)"
}