{
  "Id": "4aec042b-0b7b-4151-9193-fff5aa6c4a5d",
  "Text": "<zag size=\"14\" s=1 >Яд черной гадюки (Black Adder Venom)</zag>\r\n<zag size=\"14\" u=1 i=1 >алхимический</zag> <zag size=\"14\" u=1 i=1 >расходуемый</zag> <zag size=\"14\" u=1 i=1 >инъекция</zag> <zag size=\"14\" u=1 i=1 >яд</zag><zag size=\"14\" color=\"87|24|12\" s=1 sepType=\"2\" sep=1 >      </zag>\r\n<zag size=\"14\" s=1 >Цена:</zag> 6 зм\r\n<zag size=\"14\" s=1 >Использование:</zag> Держать в 2х руках\r\n<zag size=\"14\" s=1 >Активация:</zag> <gl id=\"0c20a91c-8445-4f35-b1fb-acd01eccfed4\" b=\"0\" h=\"0\" sep=\", \" count=\"1\" isFolder=\"0\" open=\"0\" hint=\"0\">Взаимодействовать</gl> 2\r\n\r\nЯд гадюки — простой, но эффективный способ улучшить оружие. \r\n\r\n<zag size=\"14\" s=1 >Спасбросок:</zag> 18 КС Стойкость\r\n<zag size=\"14\" s=1 >Максимальная продолжительность:</zag> 3 раунда\r\n<zag size=\"14\" s=1 >Стадия 1:</zag> урон ядом 1d8 (1 раунд)\r\n<zag size=\"14\" s=1 >Стадия 2:</zag> урон ядом 1d10 (1 раунд)\r\n<zag size=\"14\" s=1 >Стадия 3:</zag> урон ядом 2d6 (1 раунд)"
}