{
  "Id": "1dc17ce4-90e0-4c5c-99db-c73795537ae3",
  "Text": "<zag size=\"14\" s=1 >Чувство времени (Time Sense) / Чары 1</zag>\r\n    <zag size=\"14\" i=1 >прорицание</zag><zag size=\"14\" color=\"87|24|12\" s=1 sepType=\"2\" sep=1 >      </zag>\r\n<zag size=\"14\" s=1 >Обычай:</zag> арканный, оккультный\r\n<zag size=\"14\" s=1 >Сотворение:</zag> 1 действия словесный\r\n\r\nСотворяя (Cast) это заклинание, вы получаете идеальное чувство времени. Вы можете узнать, сколько точно сейчас времени вплоть до секунд. Вы можете вместо этого решить получить идеальное чувство календаря, если у вас есть знания в этой области - если вы обучены Природе, вы можете узнать точное время до рассвета или сколько дней осталось до следующего солнцестояния. Если вы обучены Знаниям астрономии (Astronomy), то можете узнать, когда точно начнется и закончится любое прогнозируемое астрологическое соединение, и так далее.\r\n\r\nВы получаете бонус состояния +1 к одному броску атаки, проверке Восприятия, спасброску или проверке навыка, которые требуют невероятно точного выбора момента и совершаются в тот же ход, в котором вы сотворили чувство времени. Если вы решаете получить этот бонус, то не можете получить его снова в течение 1 часа."
}