{
  "Id": "3e8e9d6d-d520-43c1-a646-e912da9378fc",
  "Text": "<zag size=\"14\" s=1 >Спрятан (Hidden)</zag><zag size=\"14\" color=\"87|24|12\" s=1 sepType=\"2\" sep=1 >      </zag>\r\nКогда вы спрятаны от существа, оно знает в каком пространстве вы находитесь, но не может определить ваше точное место. Обычно вы становитесь \"спрятанным\" используя Скрытность чтобы <gl id=\"ad0ef84a-cb48-4e81-a1be-b146f9df31ef\" b=\"0\" h=\"0\" sep=\", \" count=\"1\" isFolder=\"0\" open=\"0\" hint=\"0\">Спрятаться</gl>. Когда для <gl id=\"b8fa715d-3519-44c6-b473-2991f68e4784\" b=\"0\" h=\"0\" sep=\", \" count=\"1\" isFolder=\"0\" open=\"0\" hint=\"0\">Поиск</gl> существа используются только неточные чувства, оно остается \"спрятанным\", а не <gl id=\"610022db-15e6-4329-b72b-97f4c6ae2c3e\" b=\"0\" h=\"0\" sep=\", \" count=\"1\" isFolder=\"0\" open=\"0\" hint=\"0\">Замечен</gl>. Существо, от которого вы спрятались, является для вас <gl id=\"07a86690-7f89-4cb7-8a74-bf4c93b0bcb6\" b=\"0\" h=\"0\" sep=\", \" count=\"1\" isFolder=\"0\" open=\"0\" hint=\"0\">Застигнут врасплох</gl>, а также должно пройти чистую проверку с КС 11 когда делает вас целью для атаки, заклинания или другого эффекта, иначе этот эффект не действует на вас. Эффекты по области не подвержены этой чистой проверке.\r\n\r\nСущество может попытаться использовать действие <gl id=\"b8fa715d-3519-44c6-b473-2991f68e4784\" b=\"0\" h=\"0\" sep=\", \" count=\"1\" isFolder=\"0\" open=\"0\" hint=\"0\">Поиск</gl> чтобы <gl id=\"610022db-15e6-4329-b72b-97f4c6ae2c3e\" b=\"0\" h=\"0\" sep=\", \" count=\"1\" isFolder=\"0\" open=\"0\" hint=\"0\">Замечен</gl> вас, как описано."
}