{
  "Id": "7ceaf90c-ae12-4308-bf5e-5d2eb14fc98f",
  "OriginalId": null,
  "Name": "Столб воды (Spout)",
  "Hold": false,
  "HoldTime": "0001-01-01T00:00:00",
  "ReplaceOriginal": false,
  "OrigName": "чары    эвокация    вода ",
  "Level": 0,
  "School": null,
  "Time": null,
  "Range": null,
  "V": false,
  "S": false,
  "M": false,
  "ComponentText": null,
  "Duration": "",
  "Classes": "",
  "HtmlText": "<zag size=\"14\" s=1 >Обычай:</zag> арканный, природный\r\n<zag size=\"14\" s=1 >Сотворение:</zag> активность из 2-х действий жестовый, словесный\r\n<zag size=\"14\" s=1 >Дистанция:</zag> 30 футов\r\n<zag size=\"14\" s=1 >Область:</zag> 5-футовый куб\r\n<zag size=\"14\" s=1 >Спасбросок:</zag> простой Рефлекс\r\n    \r\n    Вода устремляется вверх, вырываясь из под земли, поднимаясь из водоема или даже проявляется из воздуха. Любые существа в области получают дробящий урон, равный 1d4 + ваш модификатор характеристики колдовства, с простым спасброском Рефлекса.\r\n    \r\n    Вы можете изменить область действия этого заклинания на 5-футовый взрыв, при условии, что его центр находится в водоеме. Этот водоем может быть небольшим, как пруд или ручей, но не таким маленьким как лужа или ванна.\r\n    \r\n<zag size=\"14\" s=1 >Усиление (+1):</zag> Урон увеличивается на 1d4."
}