{
  "Id": "79d0c464-fc77-418f-b309-6d7e1bdd520f",
  "Text": "<zag size=\"14\" s=1 >Любезный (Helpful)</zag><zag size=\"14\" color=\"87|24|12\" s=1 sepType=\"2\" sep=1 >      </zag>\r\nЭто состояние показывает расположение существа по отношению к определенному персонажу, и только сверхъестественные эффекты (как заклинание) могут наложить это состояние на игрового персонажа. Любезное существо хочет активно помогать персонажу. Существо будет согласно на разумные просьбы от этого персонажа, до тех пор, пока это не будет значительно влиять на его цели или жизнь. Если персонаж или один из союзников использует враждебное действие против существа, оно, по решению Мастера, изменит отношение на худшее, в зависимости от тяжести враждебного действия."
}