{
  "Id": "fcdf463a-321c-4472-9cb0-3b8b3a56089c",
  "Text": "<zag size=\"14\" s=1 >Алхимический огонь (Alchemist's Fire)</zag>\r\n<zag size=\"14\" u=1 i=1 >алхимический</zag> <zag size=\"14\" u=1 i=1 >бомба</zag> <zag size=\"14\" u=1 i=1 >расходуемый</zag> <zag size=\"14\" u=1 i=1 >огонь</zag> <zag size=\"14\" u=1 i=1 >брызги</zag><zag size=\"14\" color=\"87|24|12\" s=1 sepType=\"2\" sep=1 >      </zag>\r\n\r\n<zag size=\"14\" s=1 >Использование:</zag> держать в одной руке\r\n<zag size=\"14\" s=1 >Активация:</zag> <gl id=\"f18cbfa4-621d-4c8a-b75d-29147341cd8f\" b=\"0\" h=\"0\" sep=\", \" count=\"1\" isFolder=\"0\" open=\"0\" hint=\"0\">Удар</gl>\r\nАлхимический огонь представляет собой смесь летучих жидкостей, которые воспламеняются при контакте с воздухом. Алхимический огонь наносит указанный урон от огня, постоянный урон от огня и урон от брызг. Многие типы дают бонус предмета к броскам атаки.\r\n\r\n<zag size=\"14\" s=1 >Алхимический огонь (малый)</zag>\r\n<zag size=\"14\" s=1 >Цена:</zag> 3 зм\r\n<zag size=\"14\" s=1 >Объем:</zag> 1 л\r\nБомба наносит 1d8 урона огнем, 1 постоянный урон огнем и 1 урон огненным брызгом.\r\n\r\n<zag size=\"14\" s=1 >Алхимический огонь (средний)</zag>\r\n<zag size=\"14\" s=1 >Цена:</zag> 10 зм\r\n<zag size=\"14\" s=1 >Объем:</zag> 1 л\r\nВы получаете бонус предмета +1 к броскам атаки. Бомба наносит урон огнем 2d8, постоянный урон огнем 2 и урон брызгами огня 2.\r\n\r\n<zag size=\"14\" s=1 >Алхимический огонь (большой)</zag>\r\n<zag size=\"14\" s=1 >Цена:</zag> 250 зм\r\n<zag size=\"14\" s=1 >Объем:</zag> 1 л\r\nВы получаете бонус предмета +2 к броскам атаки. Бомба наносит урон огнем 3d8, постоянный урон огнем 3 и урон брызгами огня 3.\r\n\r\n<zag size=\"14\" s=1 >Алхимический огонь (великий)</zag>\r\n<zag size=\"14\" s=1 >Цена:</zag> 2500 зм\r\n<zag size=\"14\" s=1 >Объем:</zag> 1 л\r\nВы получаете бонус предмета +3 к броскам атаки. Бомба наносит урон огнем 4d8, постоянный урон огнем 4 и урон брызгами огня 4."
}